{
    "version": "0.1.0-alpha.16",
    "architecture": {
        "32bit": {
            "url": "https://gitlab.com/redstu-project/redstu-client/uploads/4846ea464b7efe9003e5edc6a657ce7b/redstu_0.1.0-alpha.16_windows_i386.zip",
            "bin": [
                "redstu.exe"
            ],
            "hash": "dd07cf1a6962b8410e59784e2e6e4011c8fe3d5527a905f9123e732639836e06"
        },
        "64bit": {
            "url": "https://gitlab.com/redstu-project/redstu-client/uploads/b06f1b8c1f9b5343084c090a645e8917/redstu_0.1.0-alpha.16_windows_amd64.zip",
            "bin": [
                "redstu.exe"
            ],
            "hash": "edc32a8ce466efd3939fe535242063c10453cdae53726dae7cec54dc27606503"
        }
    },
    "homepage": "https://gitlab.com/redstu-project/redstu-client",
    "license": "MIT",
    "description": "Client for Redstu Engine",
    "pre_install": [
        "Write-Host 'Running preinstall command'"
    ],
    "post_install": [
        "Write-Host 'Running postinstall command'"
    ]
}